verilog/task5/q0/counter.vcd
$date
	Mon Jul 17 06:42:50 2023
$end
$version
	Icarus Verilog
$end
$timescale
	1ps
$end
$scope module tb_johnson $end
$var wire 4 ! Count_out [3:0] $end
$var reg 1 " clock $end
$var reg 1 # r $end
$scope module uut $end
$var wire 1 " clk $end
$var wire 1 # reset $end
$var wire 1 $ w $end
$var wire 4 % q [3:0] $end
$scope module f1 $end
$var wire 1 " clk $end
$var wire 1 $ d $end
$var wire 1 # reset $end
$var reg 1 & q $end
$upscope $end
$scope module f2 $end
$var wire 1 " clk $end
$var wire 1 ' d $end
$var wire 1 # reset $end
$var reg 1 ( q $end
$upscope $end
$scope module f3 $end
$var wire 1 " clk $end
$var wire 1 ) d $end
$var wire 1 # reset $end
$var reg 1 * q $end
$upscope $end
$scope module f4 $end
$var wire 1 " clk $end
$var wire 1 + d $end
$var wire 1 # reset $end
$var reg 1 , q $end
$upscope $end
$upscope $end
$upscope $end
$enddefinitions $end
#500000
$dumpvars
0,
0+
0*
0)
0(
1'
1&
b1 %
1$
0#
0"
b1 !
$end
#510000
1)
b11 !
b11 %
1(
1"
#540000
0"
#570000
1+
b111 !
b111 %
1*
1"
#600000
0"
#630000
0$
b1111 !
b1111 %
1,
1"
#660000
0"
#690000
0'
b1110 !
b1110 %
0&
1"
#720000
0"
#750000
0)
b1100 !
b1100 %
0(
1"
#780000
0"
#810000
0+
b1000 !
b1000 %
0*
1"
#840000
0"
#870000
1$
b0 !
b0 %
0,
1"
#900000
0"
#930000
1'
b1 !
b1 %
1&
1"
#960000
0"
#990000
1)
b11 !
b11 %
1(
1"
#1020000
0"
#1050000
1+
b111 !
b111 %
1*
1"
#1080000
0"
#1110000
0$
b1111 !
b1111 %
1,
1"
#1140000
0"
#1170000
0'
b1110 !
b1110 %
0&
1"
#1200000
0"
#1230000
0)
b1100 !
b1100 %
0(
1"
#1260000
0"
#1290000
0+
b1000 !
b1000 %
0*
1"
#1320000
0"
#1350000
1$
b0 !
b0 %
0,
1"
#1380000
0"
#1410000
1'
b1 !
b1 %
1&
1"
#1440000
0"
#1470000
1)
b11 !
b11 %
1(
1"
#1500000
0"
#1530000
1+
b111 !
b111 %
1*
1"
#1560000
0"
#1590000
0$
b1111 !
b1111 %
1,
1"
#1620000
0"
#1650000
0'
b1110 !
b1110 %
0&
1"
#1680000
0"
#1710000
0)
b1100 !
b1100 %
0(
1"
#1740000
0"
#1770000
0+
b1000 !
b1000 %
0*
1"
#1800000
0"
#1830000
1$
b0 !
b0 %
0,
1"
#1860000
0"
#1890000
1'
b1 !
b1 %
1&
1"
#1920000
0"
#1950000
1)
b11 !
b11 %
1(
1"
#1980000
0"
#2010000
1+
b111 !
b111 %
1*
1"
#2040000
0"
#2070000
0$
b1111 !
b1111 %
1,
1"
#2100000
0"
#2130000
0'
b1110 !
b1110 %
0&
1"
#2160000
0"
#2190000
0)
b1100 !
b1100 %
0(
1"
#2220000
0"
#2250000
0+
b1000 !
b1000 %
0*
1"
#2280000
0"
#2310000
1$
b0 !
b0 %
0,
1"
#2340000
0"
#2370000
1'
b1 !
b1 %
1&
1"
#2400000
0"
#2430000
1)
b11 !
b11 %
1(
1"
#2460000
0"
#2490000
1+
b111 !
b111 %
1*
1"
#2520000
0"
#2550000
0$
b1111 !
b1111 %
1,
1"
#2580000
0"
#2610000
0'
b1110 !
b1110 %
0&
1"
#2640000
0"
#2670000
0)
b1100 !
b1100 %
0(
1"
#2700000
0"
#2730000
0+
b1000 !
b1000 %
0*
1"
#2760000
0"
#2790000
1$
b0 !
b0 %
0,
1"
#2820000
0"
#2850000
1'
b1 !
b1 %
1&
1"
#2880000
0"
#2910000
1)
b11 !
b11 %
1(
1"
#2940000
0"
#2970000
1+
b111 !
b111 %
1*
1"
